<svg width="16" height="16" xmlns="http://www.w3.org/2000/svg">
  <path d="M1.454 1.816a.452.452 0 00-.345.153.435.435 0 00-.103.358L2.91 13.684c.049.287.3.498.596.5h9.135a.447.447 0 00.449-.37L14.994 2.33a.435.435 0 00-.1-.358.452.452 0 00-.342-.156H1.454zm8.018 8.208H6.557l-.79-4.05h4.412l-.707 4.05z" fill="#000"/>
</svg>
