<svg width="16" height="16" xmlns="http://www.w3.org/2000/svg">
  <path d="M5.032 14.286c6.037 0 9.34-4.837 9.34-9.032 0-.137 0-.274-.01-.41A6.56 6.56 0 0016 3.2c-.6.256-1.235.425-1.885.5a3.207 3.207 0 001.443-1.757c-.645.37-1.35.63-2.085.77a3.322 3.322 0 00-1.862-.958 3.384 3.384 0 00-2.082.334 3.223 3.223 0 00-1.442 1.49 3.08 3.08 0 00-.208 2.03 9.57 9.57 0 01-3.747-.963 9.269 9.269 0 01-3.018-2.354 3.086 3.086 0 00-.36 2.314c.189.787.68 1.475 1.376 1.924a3.344 3.344 0 01-1.49-.398v.04c0 .734.263 1.444.743 2.01a3.3 3.3 0 001.89 1.102c-.483.128-.99.146-1.482.055a3.19 3.19 0 001.168 1.577 3.36 3.36 0 001.9.627A6.732 6.732 0 010 12.86a9.527 9.527 0 005.032 1.423" fill="#000"/>
</svg>
